{
  "//": "Preliminary alignment performed on 17.08.2022 with meter tape by H. Sieber and M. Tuzi.",
    "//": "All units are in cm. The y position is not reported. The x position is measured only",
    "//": "downstream1 and for ST06, STUV, MM5-7 - second magnet spectrometer for dimuon / single",
    "//": "muon measurements (downstream2). Negative x wrt. zero line is taken to be Saleve.",
    "//": "The starting point is the end of the vacuum tube upstream before S0 and ST01.",
    "//": "The uncertainty in x, when measured, is estimated about +- 1.5-2.0 cm, and along z over",
    "//": "large distances about +- 10 cm.",
    "//": "//",
    "//": "//",
    "//": "//",
    "//": "//",
    "MBPL": {
      "Mag": 1.85,
      "Dir": [0.0,-1.0,0.0],
      "BEND21U": [-500.0,-500.0,6350.0],
      "BEND21D": [ 500.0, 500.0,8350.0],
      "BEND22U": [-500.0,-500.0,9363.0],
      "BEND22D": [ 500.0, 500.0,11363.0],
      "BEND23U": [-500.0,-500.0,43325.0],
      "BEND23D": [ 500.0, 500.0,45325.0]
    },
    "//": "",
    "//": "Tracking detectors",
    "//": "",
    "MM01":{
      "origin": [   1.153175570,   -1.015378100,   4377.4],
      "dimension": [81,81,0.25],
      "resolution": 0.35
    },
    "MM02":{
      "origin": [ -14.040347800,   -2.207345600,   5279.9],
      "dimension": [81,81,0.25],
      "resolution": 0.35
    },
    "MM03":{
      "origin": [-312.277551900,   -3.353468700,  23181.7],
      "dimension": [81,81,0.25],
      "resolution": 0.35
    },
    "MM04":{
      "origin": [-363.628055870,   -4.458802100,  24395.6],
      "dimension": [81,81,0.25],
      "resolution": 0.35
    },
    "MM05":{
      "origin": [-711.410564800,  -16.833134650,  42669.4],
      "dimension": [81,81,0.25],
      "resolution": 0.35
    },
    "MM06":{
      "origin": [-790.635705660,  -10.091739000,  46245.8],
      "dimension": [81,81,0.25],
      "resolution": 0.35
    },
    "MM07":{
      "origin": [-863.427094600,  -14.241331100,  47971.5],
      "dimension": [81,81,0.25],
      "resolution": 0.35
    },
    "//": "Total length of vacuum tube is 62+500+53+1080 = 1695 cm",
    "//": "Movement of GEM01 after run 7090 -> -316.656+8.857 = -307.799",
    "GEM1":{
      "origin": [-307.798778100,    0.511214800,  23346.0],
      "dimension": [150,150,0.25],
      "resolution": 0.15
    },
    "GEM2":{
      "origin": [-338.751709800,    3.022812900,  24639.9],
      "dimension": [150,150,0.25],
      "resolution": 0.15
    },
    "ST01":{
      "origin": [  -4.6,  -7.6,  4056.3],
      "dimension": [192,192,6],
      "resolution": 0.6
    },
    "ST02":{
      "origin": [   2.1,  -5.9,  5565.9],
      "dimension": [192,192,6],
      "resolution": 0.6
    },
    "ST03":{
      "origin": [-320.8,  -9.7, 23757.2],
      "dimension": [192,192,6],
      "resolution": 0.6
    },
    "ST04":{
      "origin": [-342.3, -15.7, 24212.0],
      "dimension": [192,192,6],
      "resolution": 0.6
    },
    "ST05":{
      "origin": [-536.2, -11.9, 32876.0],
      "dimension": [192,192,6],
      "resolution": 0.6
    },
    "ST07":{
      "origin": [-546.1, -36.0, 33095.8],
      "dimension": [192,192,6],
      "resolution": 0.6
    },
    "ST06":{
      "origin": [-761.6, -25.5, 42406.8],
      "dimension": [192,192,6],
      "resolution": 0.6
    },
    "STUV":{
      "origin": [-877.1, -12.8, 47948.5],
      "dimension": [192,192,6],
      "resolution": 0.6
    }
}
