# ECAL calibrations for 2021-e run
runs=4642-5187

# for 100 GeV e-
# assumptions:
#   - energy deposit = 5% preshower + 95% ecal
#   - of beam energy 100 GeV
#   - scale factor 0.73 is based on calibr. run 5133
factor.ECAL0=0.05 * 100. * 0.73
factor.ECAL1=0.95 * 100. * 0.73

# energy: by Vladimir Samoilenko

# time: preliminary calibration, extracted from run 5175 (by AK)

columns=name,x,y,peakpos,time,timesigma
#name X Y   peak_mean    time  timesigma
ECAL0 0 0   8.97413e+02   -20.  5.
ECAL0 0 1   8.50559e+02   -20.  5.
ECAL0 0 2   1.07941e+03   -20.  5.
ECAL0 0 3   9.60123e+02   -20.  5.
ECAL0 0 4   8.88313e+02   -20.  5.
ECAL0 0 5   8.68436e+02   -20.  5.
ECAL0 1 0   8.83833e+02   -20.  5.
ECAL0 1 1   9.03511e+02   -20.  5.
ECAL0 1 2   9.30853e+02   -20.  5.
ECAL0 1 3   5.27417e+02   -20.  5.
ECAL0 1 4   1.00152e+03   -20.  5.
ECAL0 1 5   9.19900e+02   -20.  5.
ECAL0 2 0   9.17817e+02   -20.  5.
ECAL0 2 1   6.84594e+02   -20.  5.
ECAL0 2 2   8.79095e+02   -20.  5.
ECAL0 2 3   8.55864e+02   -20.  5.
ECAL0 2 4   8.93346e+02   -20.  5.
ECAL0 2 5   8.85102e+02   -20.  5.
ECAL0 3 0   9.62699e+02   -20.  5.
ECAL0 3 1   8.54306e+02   -20.  5.
ECAL0 3 2   8.55028e+02   -20.  5.
ECAL0 3 3   9.61022e+02   -20.  5.
ECAL0 3 4   1.03003e+03   -20.  5.
ECAL0 3 5   1.01644e+03   -20.  5.
ECAL0 4 0   7.01711e+02   -20.  5.
ECAL0 4 1   8.18070e+02   -20.  5.
ECAL0 4 2   8.43512e+02   -20.  5.
ECAL0 4 3   9.08680e+02   -20.  5.
ECAL0 4 4   9.17100e+02   -20.  5.
ECAL0 4 5   8.10294e+02   -20.  5.
ECAL0 5 0   8.39652e+02   -20.  5.
ECAL0 5 1   8.43274e+02   -20.  5.
ECAL0 5 2   9.76654e+02   -20.  5.
ECAL0 5 3   8.34304e+02   -20.  5.
ECAL0 5 4   9.09110e+02   -20.  5.
ECAL0 5 5   8.28173e+02   -20.  5.

ECAL1 0 0   2.49249e+03   -10.  5.
ECAL1 0 1   2.10586e+03   -10.  5.
ECAL1 0 2   2.17453e+03   -10.  5.
ECAL1 0 3   2.33024e+03   -10.  5.
ECAL1 0 4   2.29118e+03   -10.  5.
ECAL1 0 5   2.67829e+03   -10.  5.
ECAL1 1 0   2.51574e+03   -10.  5.
ECAL1 1 1   2.46690e+03   -10.  5.
ECAL1 1 2   2.09535e+03   -10.  5.
ECAL1 1 3   2.29321e+03   -10.  5.
ECAL1 1 4   2.66914e+03   -10.  5.
ECAL1 1 5   2.61099e+03   -10.  5.
ECAL1 2 0   2.41450e+03   -10.  5.
ECAL1 2 1   2.26489e+03   -10.  5.
ECAL1 2 2   2.32930e+03   -10.  5.
ECAL1 2 3   2.07625e+03   -10.  5.
ECAL1 2 4   2.60020e+03   -10.  5.
ECAL1 2 5   2.36098e+03   -10.  5.
ECAL1 3 0   2.39458e+03   -10.  5.
ECAL1 3 1   2.45404e+03   -10.  5.
ECAL1 3 2   2.34565e+03   -10.  5.
ECAL1 3 3   2.17015e+03   -10.  5.
ECAL1 3 4   2.23633e+03   -10.  5.
ECAL1 3 5   1.45197e+03   -10.  5.
ECAL1 4 0   2.48915e+03   -10.  5.
ECAL1 4 1   2.35295e+03   -10.  5.
ECAL1 4 2   2.47637e+03   -10.  5.
ECAL1 4 3   2.03014e+03   -10.  5.
ECAL1 4 4   2.51029e+03   -10.  5.
ECAL1 4 5   2.20473e+03   -10.  5.
ECAL1 5 0   2.16503e+03   -10.  5.
ECAL1 5 1   1.91166e+03   -10.  5.
ECAL1 5 2   2.44979e+03   -10.  5.
ECAL1 5 3   2.06795e+03   -10.  5.
ECAL1 5 4   2.82874e+03   -10.  5.
ECAL1 5 5   2.11816e+03   -10.  5.
