# HCAL calibrations for 2021-e run
runs=4642-5187

# beam hadrons 100 GeV
factor.HCAL0=1.00 * 100.
factor.HCAL1=1.00 * 100.
factor.HCAL2=1.00 * 100.
factor.HCAL3=1.00 * 100.

# energy: by Vladimir Samoilenko

# time: preliminary calibration, extracted from run 5175 (by AK)

columns=name,x,y,peakpos,sigma,muon_peak,muon_sigma,runnum,time,timesigma
#name  X Y  Amp 100 GeV  Sigma        Amp Muon       Sigma Muon     Run    time timesigma
HCAL0  2 2  2.53384e+03  3.24225e+02  8.84128e+01    2.08786e+01    4886   30.  5.
HCAL0  1 2  2.24882e+03  3.03798e+02  8.45129e+01    1.60706e+01    4887   30.  5.
HCAL0  0 2  2.29988e+03  3.49736e+02  8.20981e+01    1.95452e+01    4888   30.  5.
HCAL0  0 1  2.25881e+03  3.43357e+02  8.59040e+01    2.30183e+01    4889   30.  5.
HCAL0  1 1  2.53135e+03  3.41446e+02  8.92273e+01    1.77843e+01    4890   30.  5.
HCAL0  2 1  2.54715e+03  3.35962e+02  8.15964e+01    1.99908e+01    4891   30.  5.
HCAL0  2 0  2.55275e+03  3.50469e+02  9.28786e+01    1.95426e+01    4892   30.  5.
HCAL0  1 0  2.35383e+03  3.54154e+02  9.01175e+01    2.29421e+01    4893   30.  5.
HCAL0  0 0  2.19167e+03  3.29854e+02  9.50647e+01    2.52670e+01    4894   30.  5.

HCAL1  2 2  2.36550e+03  3.09221e+02  7.68968e+01    2.40352e+01    4868  -20.  5.
HCAL1  1 2  2.58146e+03  3.55958e+02  9.72621e+01    1.84483e+01    4869  -20.  5.
HCAL1  0 2  2.75490e+03  4.24631e+02  1.10191e+02    2.71900e+01    4870  -20.  5.
HCAL1  0 1  2.43943e+03  4.37013e+02  9.43927e+01    2.35722e+01    4871  -20.  5.
HCAL1  1 1  2.18807e+03  2.99556e+02  8.03061e+01    2.03543e+01    4872  -20.  5.
HCAL1  2 1  2.32617e+03  3.09727e+02  7.40323e+01    2.29887e+01    4873  -20.  5.
HCAL1  2 0  2.41037e+03  3.11468e+02  8.07946e+01    2.11683e+01    4874  -20.  5.
HCAL1  1 0  2.34072e+03  3.29219e+02  8.62689e+01    1.86842e+01    4875  -20.  5.
HCAL1  0 0  2.24746e+03  3.73052e+02  9.02682e+01    1.96384e+01    4876  -20.  5.

HCAL2  0 2  1.20432e+03  1.77754e+02  4.20764e+01    1.38375e+01    4770  -20.  5.
HCAL2  1 2  2.38416e+03  2.72017e+02  9.94719e+01    2.19947e+01    4771  -20.  5
HCAL2  2 2  2.24784e+03  2.56300e+02  8.23250e+01    2.22966e+01    4772  -20.  5.
HCAL2  2 1  2.00549e+03  2.32103e+02  7.72804e+01    1.93337e+01    4773  -20.  5.
HCAL2  1 1  2.27112e+03  2.64697e+02  8.78731e+01    2.39473e+01    4774  -20.  5.
HCAL2  0 1  2.34613e+03  3.02200e+02  9.55153e+01    2.32881e+01    4775  -20.  5.
HCAL2  0 0  2.09645e+03  2.98946e+02  8.88635e+01    2.57202e+01    4776  -20.  5.
HCAL2  1 0  2.22220e+03  2.52968e+02  8.59034e+01    1.82977e+01    4777  -20.  5.
HCAL2  2 0  2.46738e+03  2.42737e+02  9.16346e+01    2.18205e+01    4778  -20.  5.

HCAL3  0 0  2.31732e+03  3.17444e+02  9.51341e+01    2.12825e+01    4737  -20.  5.
HCAL3  1 0  2.50497e+03  2.84993e+02  9.86066e+01    2.33789e+01    4735  -20.  5.
HCAL3  2 0  2.76603e+03  2.75046e+02  1.10792e+02    2.99652e+01    4732  -20.  5.
HCAL3  2 1  2.27394e+03  2.74738e+02  7.95604e+01    2.36595e+01    4730  -20.  5.
HCAL3  1 1  2.40473e+03  2.45156e+02  9.90881e+01    2.37821e+01    4722  -20.  5.
HCAL3  0 1  2.25722e+03  3.19767e+02  9.02934e+01    2.26227e+01    4726  -20.  5.
HCAL3  0 2  1.65639e+03  2.67388e+02  6.37931e+01    2.04676e+01    4724  -20.  5.
HCAL3  1 2  2.14215e+03  2.39415e+02  8.36969e+01    2.15341e+01    4719  -20.  5.
HCAL3  2 2  2.20289e+03  2.73398e+02  7.20921e+01    1.82403e+01    4722  -20.  5.
